<?xml version="1.0" encoding="UTF-8"?>
<svg width="18px" height="16px" viewBox="0 0 18 16" version="1.1" xmlns="http://www.w3.org/2000/svg" xmlns:xlink="http://www.w3.org/1999/xlink">
    <title>building</title>
    <g id="Symbols" stroke="none" stroke-width="1" fill="none" fill-rule="evenodd">
        <g id="20x20/about" transform="translate(-1.000000, -2.000000)" fill="#521990">
            <path d="M18.5,18 C18.6458333,18 18.765625,17.953125 18.859375,17.859375 C18.953125,17.765625 19,17.6458333 19,17.5 L19,17.5 L19,17 C19,16.8541667 18.953125,16.734375 18.859375,16.640625 C18.765625,16.546875 18.6458333,16.5 18.5,16.5 L18.5,16.5 L18,16.5 L18,3.5 L18.5,3.5 C18.6458333,3.5 18.765625,3.453125 18.859375,3.359375 C18.953125,3.265625 19,3.14583333 19,3 L19,3 L19,2.5 C19,2.35416667 18.953125,2.234375 18.859375,2.140625 C18.765625,2.046875 18.6458333,2 18.5,2 L18.5,2 L1.5,2 C1.35416667,2 1.234375,2.046875 1.140625,2.140625 C1.046875,2.234375 1,2.35416667 1,2.5 L1,2.5 L1,3 C1,3.14583333 1.046875,3.265625 1.140625,3.359375 C1.234375,3.453125 1.35416667,3.5 1.5,3.5 L1.5,3.5 L2,3.5 L2,16.5 L1.5,16.5 C1.35416667,16.5 1.234375,16.546875 1.140625,16.640625 C1.046875,16.734375 1,16.8541667 1,17 L1,17 L1,17.5 C1,17.6458333 1.046875,17.765625 1.140625,17.859375 C1.234375,17.953125 1.35416667,18 1.5,18 L1.5,18 L18.5,18 Z M9,16.5 L3.5,16.5 L3.5,3.5 L16.5,3.5 L16.5,16.5 L11,16.5 L11,14 L13,14 C13,13.1666667 12.7083333,12.4583333 12.125,11.875 C11.5416667,11.2916667 10.8333333,11 10,11 C9.16666667,11 8.45833333,11.2916667 7.875,11.875 C7.29166667,12.4583333 7,13.1666667 7,14 L7,14 L9,14 L9,16.5 Z M10.59375,7 C10.6979167,7 10.7916667,6.95833333 10.875,6.875 C10.9583333,6.79166667 11,6.69791667 11,6.59375 L11,6.59375 L11,5.40625 C11,5.30208333 10.9583333,5.20833333 10.875,5.125 C10.7916667,5.04166667 10.6979167,5 10.59375,5 L10.59375,5 L9.40625,5 C9.30208333,5 9.20833333,5.04166667 9.125,5.125 C9.04166667,5.20833333 9,5.30208333 9,5.40625 L9,5.40625 L9,6.59375 C9,6.69791667 9.04166667,6.79166667 9.125,6.875 C9.20833333,6.95833333 9.30208333,7 9.40625,7 L9.40625,7 L10.59375,7 Z M14.59375,7 C14.6979167,7 14.7916667,6.95833333 14.875,6.875 C14.9583333,6.79166667 15,6.69791667 15,6.59375 L15,6.59375 L15,5.40625 C15,5.30208333 14.9583333,5.20833333 14.875,5.125 C14.7916667,5.04166667 14.6979167,5 14.59375,5 L14.59375,5 L13.40625,5 C13.3020833,5 13.2083333,5.04166667 13.125,5.125 C13.0416667,5.20833333 13,5.30208333 13,5.40625 L13,5.40625 L13,6.59375 C13,6.69791667 13.0416667,6.79166667 13.125,6.875 C13.2083333,6.95833333 13.3020833,7 13.40625,7 L13.40625,7 L14.59375,7 Z M6.59375,7 C6.69791667,7 6.79166667,6.95833333 6.875,6.875 C6.95833333,6.79166667 7,6.69791667 7,6.59375 L7,6.59375 L7,5.40625 C7,5.30208333 6.95833333,5.20833333 6.875,5.125 C6.79166667,5.04166667 6.69791667,5 6.59375,5 L6.59375,5 L5.40625,5 C5.30208333,5 5.20833333,5.04166667 5.125,5.125 C5.04166667,5.20833333 5,5.30208333 5,5.40625 L5,5.40625 L5,6.59375 C5,6.69791667 5.04166667,6.79166667 5.125,6.875 C5.20833333,6.95833333 5.30208333,7 5.40625,7 L5.40625,7 L6.59375,7 Z M10.59375,10 C10.6979167,10 10.7916667,9.95833333 10.875,9.875 C10.9583333,9.79166667 11,9.69791667 11,9.59375 L11,9.59375 L11,8.40625 C11,8.30208333 10.9583333,8.20833333 10.875,8.125 C10.7916667,8.04166667 10.6979167,8 10.59375,8 L10.59375,8 L9.40625,8 C9.30208333,8 9.20833333,8.04166667 9.125,8.125 C9.04166667,8.20833333 9,8.30208333 9,8.40625 L9,8.40625 L9,9.59375 C9,9.69791667 9.04166667,9.79166667 9.125,9.875 C9.20833333,9.95833333 9.30208333,10 9.40625,10 L9.40625,10 L10.59375,10 Z M14.59375,10 C14.6979167,10 14.7916667,9.95833333 14.875,9.875 C14.9583333,9.79166667 15,9.69791667 15,9.59375 L15,9.59375 L15,8.40625 C15,8.30208333 14.9583333,8.20833333 14.875,8.125 C14.7916667,8.04166667 14.6979167,8 14.59375,8 L14.59375,8 L13.40625,8 C13.3020833,8 13.2083333,8.04166667 13.125,8.125 C13.0416667,8.20833333 13,8.30208333 13,8.40625 L13,8.40625 L13,9.59375 C13,9.69791667 13.0416667,9.79166667 13.125,9.875 C13.2083333,9.95833333 13.3020833,10 13.40625,10 L13.40625,10 L14.59375,10 Z M6.59375,10 C6.69791667,10 6.79166667,9.95833333 6.875,9.875 C6.95833333,9.79166667 7,9.69791667 7,9.59375 L7,9.59375 L7,8.40625 C7,8.30208333 6.95833333,8.20833333 6.875,8.125 C6.79166667,8.04166667 6.69791667,8 6.59375,8 L6.59375,8 L5.40625,8 C5.30208333,8 5.20833333,8.04166667 5.125,8.125 C5.04166667,8.20833333 5,8.30208333 5,8.40625 L5,8.40625 L5,9.59375 C5,9.69791667 5.04166667,9.79166667 5.125,9.875 C5.20833333,9.95833333 5.30208333,10 5.40625,10 L5.40625,10 L6.59375,10 Z" id="building"></path>
        </g>
    </g>
</svg>