<?xml version="1.0" encoding="UTF-8"?>
<svg width="16px" height="18px" viewBox="0 0 16 18" version="1.1" xmlns="http://www.w3.org/2000/svg" xmlns:xlink="http://www.w3.org/1999/xlink">
    <title>calendar</title>
    <g id="Symbols" stroke="none" stroke-width="1" fill="none" fill-rule="evenodd">
        <g id="20x20/reservation" transform="translate(-2.000000, 0.000000)" fill="#521990">
            <path d="M16.2857143,18 C16.7619048,18 17.1666667,17.8359375 17.5,17.5078125 C17.8333333,17.1796875 18,16.78125 18,16.3125 L18,16.3125 L18,3.9375 C18,3.46875 17.8333333,3.0703125 17.5,2.7421875 C17.1666667,2.4140625 16.7619048,2.25 16.2857143,2.25 L16.2857143,2.25 L14.5714286,2.25 L14.5714286,0.5625 C14.5714286,0.3984375 14.5178571,0.263671875 14.4107143,0.158203125 C14.3035714,0.052734375 14.1666667,0 14,0 L14,0 L12.8571429,0 C12.6904762,0 12.5535714,0.052734375 12.4464286,0.158203125 C12.3392857,0.263671875 12.2857143,0.3984375 12.2857143,0.5625 L12.2857143,0.5625 L12.2857143,2.25 L7.71428571,2.25 L7.71428571,0.5625 C7.71428571,0.3984375 7.66071429,0.263671875 7.55357143,0.158203125 C7.44642857,0.052734375 7.30952381,0 7.14285714,0 L7.14285714,0 L6,0 C5.83333333,0 5.69642857,0.052734375 5.58928571,0.158203125 C5.48214286,0.263671875 5.42857143,0.3984375 5.42857143,0.5625 L5.42857143,0.5625 L5.42857143,2.25 L3.71428571,2.25 C3.23809524,2.25 2.83333333,2.4140625 2.5,2.7421875 C2.16666667,3.0703125 2,3.46875 2,3.9375 L2,3.9375 L2,16.3125 C2,16.78125 2.16666667,17.1796875 2.5,17.5078125 C2.83333333,17.8359375 3.23809524,18 3.71428571,18 L3.71428571,18 L16.2857143,18 Z M16.0714286,16.3125 L3.92857143,16.3125 C3.78571429,16.3125 3.71428571,16.2421875 3.71428571,16.1015625 L3.71428571,16.1015625 L3.71428571,5.625 L16.2857143,5.625 L16.2857143,16.1015625 C16.2857143,16.2421875 16.2142857,16.3125 16.0714286,16.3125 L16.0714286,16.3125 Z M11.75,14.0273437 C11.8928571,14.0976562 12.0357143,14.0800781 12.1785714,13.9746094 C12.3214286,13.8691406 12.3809524,13.734375 12.3571429,13.5703125 L12.3571429,13.5703125 L12.0357143,11.6367187 L13.4285714,10.3007812 C13.5714286,10.1835937 13.6130952,10.0371094 13.5535714,9.86132812 C13.4940476,9.68554688 13.3809524,9.5859375 13.2142857,9.5625 L13.2142857,9.5625 L11.25,9.28125 L10.3928571,7.55859375 C10.297619,7.39453125 10.1607143,7.3125 9.98214286,7.3125 C9.80357143,7.3125 9.67857143,7.39453125 9.60714286,7.55859375 L9.60714286,7.55859375 L8.75,9.28125 L6.78571429,9.5625 C6.61904762,9.5859375 6.50595238,9.68554688 6.44642857,9.86132812 C6.38690476,10.0371094 6.41666667,10.1835937 6.53571429,10.3007812 L6.53571429,10.3007812 L7.96428571,11.6367187 L7.64285714,13.5703125 C7.5952381,13.734375 7.64285714,13.8691406 7.78571429,13.9746094 C7.92857143,14.0800781 8.08333333,14.0976562 8.25,14.0273437 L8.25,14.0273437 L10,13.1132812 L11.75,14.0273437 Z" id="calendar"></path>
        </g>
    </g>
</svg>