<?xml version="1.0" encoding="UTF-8"?>
<svg width="18px" height="18px" viewBox="0 0 18 18" version="1.1" xmlns="http://www.w3.org/2000/svg" xmlns:xlink="http://www.w3.org/1999/xlink">
    <title>edit</title>
    <g id="Symbols" stroke="none" stroke-width="1" fill="none" fill-rule="evenodd">
        <g id="20x20/edit" transform="translate(-1.000000, -1.000000)" fill="#521990">
            <path d="M1.95361328,19 L5.96142578,18.5429688 L18.3364258,6.16796875 C18.7817383,5.72265625 19.0043945,5.18945312 19.0043945,4.56835938 C19.0043945,3.94726563 18.7817383,3.4140625 18.3364258,2.96875 L18.3364258,2.96875 L17.0356445,1.66796875 C16.590332,1.22265625 16.0571289,1 15.4360352,1 C14.8149414,1 14.2817383,1.22265625 13.8364258,1.66796875 L13.8364258,1.66796875 L1.46142578,14.0429688 L1.00439453,18.0507812 C0.980957031,18.3085938 1.05126953,18.53125 1.21533203,18.71875 C1.37939453,18.90625 1.59033203,19 1.84814453,19 L1.84814453,19 L1.95361328,19 Z M15.5942383,6.51953125 L13.4848633,4.41015625 L15.0317383,2.86328125 C15.1489258,2.74609375 15.2836914,2.6875 15.4360352,2.6875 C15.5883789,2.6875 15.7231445,2.74609375 15.840332,2.86328125 L15.840332,2.86328125 L17.1411133,4.1640625 C17.4223633,4.4453125 17.4223633,4.71484375 17.1411133,4.97265625 L17.1411133,4.97265625 L15.5942383,6.51953125 Z M2.79736328,17.2070312 L3.07861328,14.8164062 L11.199707,6.6953125 L12.2895508,5.60546875 L14.3989258,7.71484375 L13.309082,8.8046875 L5.18798828,16.9257812 L2.79736328,17.2070312 Z" id="edit"></path>
        </g>
    </g>
</svg>