<?xml version="1.0" encoding="UTF-8"?>
<svg width="16px" height="16px" viewBox="0 0 16 16" version="1.1" xmlns="http://www.w3.org/2000/svg" xmlns:xlink="http://www.w3.org/1999/xlink">
    <title>next</title>
    <g id="Symbols" stroke="none" stroke-width="1" fill="none" fill-rule="evenodd">
        <g id="20x20/next" transform="translate(-2.000000, -2.000000)" fill="#521990">
            <path d="M9.77703456,17.8558559 C9.99108138,18.048048 10.1932367,18.048048 10.3835006,17.8558559 L10.3835006,17.8558559 L17.8394649,10.2882883 C18.0535117,10.0960961 18.0535117,9.9039039 17.8394649,9.71171171 L17.8394649,9.71171171 L10.3835006,2.14414414 C10.1932367,1.95195195 9.99108138,1.95195195 9.77703456,2.14414414 L9.77703456,2.14414414 L9.06354515,2.86486486 C8.87328131,3.05705706 8.87328131,3.26126126 9.06354515,3.47747748 L9.06354515,3.47747748 L14.5930881,9.06306306 L2.42809365,9.06306306 C2.14269788,9.06306306 2,9.20720721 2,9.4954955 L2,9.4954955 L2,10.5045045 C2,10.7927928 2.14269788,10.9369369 2.42809365,10.9369369 L2.42809365,10.9369369 L14.5930881,10.9369369 L9.06354515,16.5225225 C8.99219621,16.6186186 8.95652174,16.7267267 8.95652174,16.8468468 C8.95652174,16.966967 8.99219621,17.0630631 9.06354515,17.1351351 L9.06354515,17.1351351 L9.77703456,17.8558559 Z" id="next"></path>
        </g>
    </g>
</svg>