<?xml version="1.0" encoding="UTF-8"?>
<svg width="14px" height="18px" viewBox="0 0 14 18" version="1.1" xmlns="http://www.w3.org/2000/svg" xmlns:xlink="http://www.w3.org/1999/xlink">
    <title>pin</title>
    <g id="Symbols" stroke="none" stroke-width="1" fill="none" fill-rule="evenodd">
        <g id="20x20/pin-map" transform="translate(-3.000000, -1.000000)" fill="#521990">
            <path d="M10,19 C10.65625,19 11.1545139,18.7304688 11.4947917,18.1914062 C12.0052083,17.3945312 12.5824653,16.5039062 13.2265625,15.5195312 C13.8706597,14.5351562 14.3324653,13.8320312 14.6119792,13.4101562 C14.8914931,12.9882812 15.2135417,12.484375 15.578125,11.8984375 C15.9427083,11.3125 16.1857639,10.890625 16.3072917,10.6328125 C16.4288194,10.375 16.5625,10.0585938 16.7083333,9.68359375 C16.8541667,9.30859375 16.9392361,8.98632812 16.9635417,8.71679688 C16.9878472,8.44726562 17,8.125 17,7.75 C17,5.875 16.3194444,4.28125 14.9583333,2.96875 C13.5972222,1.65625 11.9444444,1 10,1 C8.05555556,1 6.40277778,1.65625 5.04166667,2.96875 C3.68055556,4.28125 3,5.875 3,7.75 C3,8.125 3.01215278,8.44726562 3.03645833,8.71679688 C3.06076389,8.98632812 3.14583333,9.30859375 3.29166667,9.68359375 C3.4375,10.0585938 3.57118056,10.375 3.69270833,10.6328125 C3.81423611,10.890625 4.05729167,11.3125 4.421875,11.8984375 C4.78645833,12.484375 5.10850694,12.9882812 5.38802083,13.4101562 C5.66753472,13.8320312 6.12934028,14.5351562 6.7734375,15.5195312 C7.41753472,16.5039062 7.99479167,17.3945312 8.50520833,18.1914062 C8.84548611,18.7304688 9.34375,19 10,19 Z M10,17.3125 C9.51388889,16.5625 8.99739583,15.7714844 8.45052083,14.9394531 C7.90364583,14.1074219 7.49045139,13.4746094 7.2109375,13.0410156 C6.93142361,12.6074219 6.63368056,12.1445312 6.31770833,11.6523438 C6.00173611,11.1601562 5.77083333,10.7910156 5.625,10.5449219 C5.47916667,10.2988281 5.33333333,10.0351562 5.1875,9.75390625 C5.04166667,9.47265625 4.94444444,9.23242188 4.89583333,9.03320312 C4.84722222,8.83398438 4.81076389,8.63476562 4.78645833,8.43554688 C4.76215278,8.23632812 4.75,8.0078125 4.75,7.75 C4.75,6.34375 5.26041667,5.1484375 6.28125,4.1640625 C7.30208333,3.1796875 8.54166667,2.6875 10,2.6875 C11.4583333,2.6875 12.6979167,3.1796875 13.71875,4.1640625 C14.7395833,5.1484375 15.25,6.34375 15.25,7.75 C15.25,8.0078125 15.2378472,8.23632812 15.2135417,8.43554688 C15.1892361,8.63476562 15.1527778,8.828125 15.1041667,9.015625 C15.0555556,9.203125 14.9583333,9.4375 14.8125,9.71875 C14.6666667,10 14.5269097,10.2636719 14.3932292,10.5097656 C14.2595486,10.7558594 14.0347222,11.125 13.71875,11.6171875 C13.4027778,12.109375 13.1050347,12.5722656 12.8255208,13.0058594 C12.5460069,13.4394531 12.1267361,14.078125 11.5677083,14.921875 C11.0086806,15.765625 10.4861111,16.5625 10,17.3125 Z M10,10.5625 C10.8020833,10.5625 11.4887153,10.2871094 12.0598958,9.73632812 C12.6310764,9.18554688 12.9166667,8.5234375 12.9166667,7.75 C12.9166667,6.9765625 12.6310764,6.31445312 12.0598958,5.76367188 C11.4887153,5.21289062 10.8020833,4.9375 10,4.9375 C9.19791667,4.9375 8.51128472,5.21289062 7.94010417,5.76367188 C7.36892361,6.31445312 7.08333333,6.9765625 7.08333333,7.75 C7.08333333,8.5234375 7.36284722,9.19140625 7.921875,9.75390625 C8.50520833,10.2929688 9.19791667,10.5625 10,10.5625 Z" id="pin"></path>
        </g>
    </g>
</svg>