<?xml version="1.0" encoding="UTF-8"?>
<svg width="18px" height="18px" viewBox="0 0 18 18" version="1.1" xmlns="http://www.w3.org/2000/svg" xmlns:xlink="http://www.w3.org/1999/xlink">
    <title>settings</title>
    <g id="Symbols" stroke="none" stroke-width="1" fill="none" fill-rule="evenodd">
        <g id="20x20/settings" transform="translate(-1.000000, -1.000000)" fill="#521990">
            <path d="M7.60797342,18.6921529 C9.20265781,19.1026157 10.7973422,19.1026157 12.3920266,18.6921529 C12.8405316,18.5714286 13.0647841,18.2816901 13.0647841,17.8229376 L13.0647841,17.8229376 L13.0647841,16.5191147 C13.4883721,16.3259557 13.8995017,16.0965795 14.2981728,15.8309859 L14.2981728,15.8309859 L15.4568106,16.4828974 C15.8554817,16.7002012 16.2167774,16.6519115 16.5406977,16.3380282 C17.711794,15.2032193 18.5215947,13.8631791 18.9700997,12.3179074 C19.0697674,11.9074447 18.9202658,11.5814889 18.5215947,11.3400402 L18.5215947,11.3400402 L17.3629568,10.6881288 C17.3878738,10.2293763 17.3878738,9.77062374 17.3629568,9.31187123 L17.3629568,9.31187123 L18.5215947,8.65995976 C18.9202658,8.41851107 19.0697674,8.09255533 18.9700997,7.68209256 C18.5215947,6.13682093 17.711794,4.79678068 16.5406977,3.66197183 C16.2167774,3.34808853 15.8554817,3.29979879 15.4568106,3.51710262 L15.4568106,3.51710262 L14.2981728,4.16901408 C13.8995017,3.90342052 13.4883721,3.67404427 13.0647841,3.48088531 L13.0647841,3.48088531 L13.0647841,2.17706237 C13.0647841,1.98390342 12.9962625,1.8028169 12.8592193,1.63380282 C12.7221761,1.46478873 12.5664452,1.35613682 12.3920266,1.30784708 C10.7973422,0.897384306 9.20265781,0.897384306 7.60797342,1.30784708 C7.15946844,1.42857143 6.93521595,1.71830986 6.93521595,2.17706237 L6.93521595,2.17706237 L6.93521595,3.48088531 C6.51162791,3.67404427 6.10049834,3.90342052 5.70182724,4.16901408 L5.70182724,4.16901408 L4.54318937,3.51710262 C4.14451827,3.29979879 3.78322259,3.34808853 3.45930233,3.66197183 C2.28820598,4.79678068 1.47840532,6.13682093 1.02990033,7.68209256 C0.930232558,8.09255533 1.07973422,8.41851107 1.47840532,8.65995976 L1.47840532,8.65995976 L2.63704319,9.31187123 L2.63704319,9.31187123 L2.63704319,10.6881288 L1.47840532,11.3400402 C1.07973422,11.5814889 0.930232558,11.9074447 1.02990033,12.3179074 C1.47840532,13.8631791 2.28820598,15.2032193 3.45930233,16.3380282 C3.78322259,16.6519115 4.14451827,16.7002012 4.54318937,16.4828974 L4.54318937,16.4828974 L5.70182724,15.8309859 C6.10049834,16.0965795 6.51162791,16.3259557 6.93521595,16.5191147 L6.93521595,16.5191147 L6.93521595,17.8229376 C6.93521595,18.0160966 7.00373754,18.1971831 7.14078073,18.3661972 C7.27782392,18.5352113 7.43355482,18.6438632 7.60797342,18.6921529 Z M10,17.2434608 C9.57641196,17.2434608 9.15282392,17.2072435 8.72923588,17.1348089 L8.72923588,17.1348089 L8.72923588,15.3239437 C8.00664452,15.0583501 7.50207641,14.8470825 7.21553156,14.6901408 C6.92898671,14.5331992 6.48671096,14.2132797 5.88870432,13.7303823 L5.88870432,13.7303823 L4.24418605,14.6358149 C3.69601329,13.9839034 3.27242525,13.2716298 2.97342193,12.498994 L2.97342193,12.498994 L4.6179402,11.5935614 C4.46843854,10.8450704 4.39368771,10.3138833 4.39368771,10 C4.39368771,9.6861167 4.46843854,9.15492958 4.6179402,8.40643863 L4.6179402,8.40643863 L2.97342193,7.50100604 C3.27242525,6.72837022 3.69601329,6.01609658 4.24418605,5.36418511 L4.24418605,5.36418511 L5.88870432,6.26961771 C6.48671096,5.78672032 6.92898671,5.4668008 7.21553156,5.30985915 C7.50207641,5.15291751 8.00664452,4.9416499 8.72923588,4.67605634 L8.72923588,4.67605634 L8.72923588,2.86519115 C9.15282392,2.79275654 9.57641196,2.75653924 10,2.75653924 C10.423588,2.75653924 10.8471761,2.79275654 11.2707641,2.86519115 L11.2707641,2.86519115 L11.2707641,4.67605634 C11.7940199,4.86921529 12.1802326,5.02012072 12.429402,5.12877264 C12.6785714,5.23742455 12.9152824,5.37022133 13.1395349,5.52716298 C13.3637874,5.68410463 13.6877076,5.93158954 14.1112957,6.26961771 L14.1112957,6.26961771 L15.755814,5.36418511 C16.3039867,6.01609658 16.7275748,6.72837022 17.0265781,7.50100604 L17.0265781,7.50100604 L15.3820598,8.40643863 C15.5315615,9.15492958 15.6063123,9.6861167 15.6063123,10 C15.6063123,10.3138833 15.5315615,10.8450704 15.3820598,11.5935614 L15.3820598,11.5935614 L17.0265781,12.498994 C16.7275748,13.2716298 16.3039867,13.9839034 15.755814,14.6358149 L15.755814,14.6358149 L14.1112957,13.7303823 C13.6877076,14.0684105 13.3637874,14.3158954 13.1395349,14.472837 C12.9152824,14.6297787 12.6785714,14.7625755 12.429402,14.8712274 C12.1802326,14.9798793 11.7940199,15.1307847 11.2707641,15.3239437 L11.2707641,15.3239437 L11.2707641,17.1348089 C10.8471761,17.2072435 10.423588,17.2434608 10,17.2434608 Z M10,13.4768612 C10.9966777,13.4768612 11.8438538,13.138833 12.5415282,12.4627767 C13.2392027,11.7867203 13.5880399,10.9657948 13.5880399,10 C13.5880399,9.03420523 13.2392027,8.21327968 12.5415282,7.53722334 C11.8438538,6.861167 10.9966777,6.52313883 10,6.52313883 C9.00332226,6.52313883 8.15614618,6.861167 7.45847176,7.53722334 C6.76079734,8.21327968 6.41196013,9.03420523 6.41196013,10 C6.41196013,10.9657948 6.76079734,11.7867203 7.45847176,12.4627767 C8.15614618,13.138833 9.00332226,13.4768612 10,13.4768612 Z M10,11.7384306 C9.50166113,11.7384306 9.07807309,11.5694165 8.72923588,11.2313883 C8.38039867,10.8933602 8.20598007,10.4828974 8.20598007,10 C8.20598007,9.51710262 8.38039867,9.10663984 8.72923588,8.76861167 C9.07807309,8.4305835 9.50166113,8.26156942 10,8.26156942 C10.4983389,8.26156942 10.9219269,8.4305835 11.2707641,8.76861167 C11.6196013,9.10663984 11.7940199,9.51710262 11.7940199,10 C11.7940199,10.4828974 11.6196013,10.8933602 11.2707641,11.2313883 C10.9219269,11.5694165 10.4983389,11.7384306 10,11.7384306 Z" id="settings"></path>
        </g>
    </g>
</svg>