<?xml version="1.0" encoding="UTF-8"?>
<svg width="18px" height="18px" viewBox="0 0 18 18" version="1.1" xmlns="http://www.w3.org/2000/svg" xmlns:xlink="http://www.w3.org/1999/xlink">
    <title>star</title>
    <g id="Symbols" stroke="none" stroke-width="1" fill="none" fill-rule="evenodd">
        <g id="20x20/rate" transform="translate(-1.000000, -1.000000)" fill="#521990">
            <path d="M4.4884242,18.2829017 C4.84690067,18.5482441 5.21657954,18.5703559 5.59746079,18.3492373 L5.59746079,18.3492373 L10,16.0938276 L14.4025392,18.3492373 C14.7834205,18.5482441 15.1530993,18.5206042 15.5115758,18.2663178 C15.8700523,18.0120315 16.0156833,17.6748256 15.948469,17.2547002 L15.948469,17.2547002 L15.1082898,12.4122029 L18.6706497,8.99592054 C18.9843167,8.6863545 19.0739358,8.32150881 18.9395071,7.90138347 C18.8050784,7.48125813 18.5138163,7.2490836 18.0657207,7.20485988 L18.0657207,7.20485988 L13.1590739,6.4751685 L10.9746079,2.09702022 C10.7729649,1.69900674 10.4480956,1.5 10,1.5 C9.55190441,1.5 9.2270351,1.69900674 9.02539208,2.09702022 L9.02539208,2.09702022 L6.84092606,6.4751685 L1.93427931,7.20485988 C1.48618372,7.2490836 1.19492158,7.48125813 1.06049291,7.90138347 C0.926064227,8.32150881 1.01568335,8.6863545 1.32935026,8.99592054 L1.32935026,8.99592054 L4.89171023,12.4122029 L4.05153099,17.2547002 C3.98431665,17.6748256 4.12994772,18.0175594 4.4884242,18.2829017 Z M14.167289,16.4586733 L10,14.2695991 L5.83271098,16.4586733 L6.60567588,11.8483505 L3.24495892,8.59790706 L7.91635549,7.93455126 L10,3.75540972 L12.0836445,7.93455126 L16.7550411,8.59790706 L13.3943241,11.8483505 L14.167289,16.4586733 Z" id="star"></path>
        </g>
    </g>
</svg>