<?xml version="1.0" encoding="UTF-8"?>
<svg width="18px" height="18px" viewBox="0 0 18 18" version="1.1" xmlns="http://www.w3.org/2000/svg" xmlns:xlink="http://www.w3.org/1999/xlink">
    <title>user</title>
    <g id="Symbols" stroke="none" stroke-width="1" fill="none" fill-rule="evenodd">
        <g id="20x20/user" transform="translate(-1.000000, -1.000000)" fill="#521990">
            <path d="M10,19 C12.4919355,19 14.6149194,18.1229839 16.3689516,16.3689516 C18.1229839,14.6149194 19,12.4919355 19,10 C19,7.50806452 18.1229839,5.38508065 16.3689516,3.63104839 C14.6149194,1.87701613 12.4919355,1 10,1 C7.50806452,1 5.37903226,1.88306452 3.61290323,3.64919355 C1.87096774,5.39112903 1,7.50806452 1,10 C1,12.4919355 1.87701613,14.6149194 3.63104839,16.3689516 C5.38508065,18.1229839 7.50806452,19 10,19 Z M15.9153226,14.2096774 C14.9233871,12.9516129 13.6532258,12.3225806 12.1048387,12.3225806 C12.0322581,12.3225806 11.7721774,12.3830645 11.3245968,12.5040323 C10.8770161,12.625 10.4354839,12.6854839 10,12.6854839 C9.56451613,12.6854839 9.12298387,12.625 8.67540323,12.5040323 C8.22782258,12.3830645 7.96774194,12.3225806 7.89516129,12.3225806 C6.34677419,12.3225806 5.0766129,12.9516129 4.08467742,14.2096774 C3.18951613,12.9516129 2.74193548,11.5483871 2.74193548,10 C2.74193548,7.99193548 3.44959677,6.28024194 4.86491935,4.86491935 C6.28024194,3.44959677 7.99193548,2.74193548 10,2.74193548 C12.0080645,2.74193548 13.7197581,3.44959677 15.1350806,4.86491935 C16.5504032,6.28024194 17.2580645,7.99193548 17.2580645,10 C17.2580645,11.5483871 16.8104839,12.9516129 15.9153226,14.2096774 Z M10,11.4516129 C10.9677419,11.4516129 11.7903226,11.1129032 12.4677419,10.4354839 C13.1451613,9.75806452 13.483871,8.93548387 13.483871,7.96774194 C13.483871,7 13.1451613,6.17741935 12.4677419,5.5 C11.7903226,4.82258065 10.9677419,4.48387097 10,4.48387097 C9.03225806,4.48387097 8.20967742,4.82258065 7.53225806,5.5 C6.85483871,6.17741935 6.51612903,7 6.51612903,7.96774194 C6.51612903,8.93548387 6.85483871,9.75806452 7.53225806,10.4354839 C8.20967742,11.1129032 9.03225806,11.4516129 10,11.4516129 Z M10,9.70967742 C9.51612903,9.70967742 9.10483871,9.54032258 8.76612903,9.2016129 C8.42741935,8.86290323 8.25806452,8.4516129 8.25806452,7.96774194 C8.25806452,7.48387097 8.42741935,7.07258065 8.76612903,6.73387097 C9.10483871,6.39516129 9.51612903,6.22580645 10,6.22580645 C10.483871,6.22580645 10.8951613,6.39516129 11.233871,6.73387097 C11.5725806,7.07258065 11.7419355,7.48387097 11.7419355,7.96774194 C11.7419355,8.4516129 11.5725806,8.86290323 11.233871,9.2016129 C10.8951613,9.54032258 10.483871,9.70967742 10,9.70967742 Z M10,17.2580645 C8.20967742,17.2580645 6.63709677,16.6774194 5.28225806,15.516129 C5.88709677,14.5725806 6.73387097,14.0887097 7.82258065,14.0645161 C8.57258065,14.3064516 9.2983871,14.4274194 10,14.4274194 C10.7258065,14.4274194 11.4516129,14.3064516 12.1774194,14.0645161 C13.2903226,14.1129032 14.1370968,14.5967742 14.7177419,15.516129 C13.3629032,16.6774194 11.7903226,17.2580645 10,17.2580645 Z" id="user"></path>
        </g>
    </g>
</svg>