{
  "project_info": {
    "project_number": "532340963161",
    "project_id": "avemenu-4a05c",
    "storage_bucket": "avemenu-4a05c.appspot.com"
  },
  "client": [
    {
      "client_info": {
        "mobilesdk_app_id": "1:532340963161:android:81f24cb5d904d3fdd0fe48",
        "android_client_info": {
          "package_name": "com.avemenuadmin"
        }
      },
      "oauth_client": [
        {
          "client_id": "532340963161-3brg1sog6qjmmlapv9ru3t0thcjp87ad.apps.googleusercontent.com",
          "client_type": 3
        }
      ],
      "api_key": [
        {
          "current_key": "AIzaSyB7piLQxm23r7ANYKnCQ3Hl97yK7joDz9s"
        }
      ],
      "services": {
        "appinvite_service": {
          "other_platform_oauth_client": [
            {
              "client_id": "532340963161-3brg1sog6qjmmlapv9ru3t0thcjp87ad.apps.googleusercontent.com",
              "client_type": 3
            },
            {
              "client_id": "532340963161-kafpfoeud2v5v8371cv827cjpbbge361.apps.googleusercontent.com",
              "client_type": 2,
              "ios_info": {
                "bundle_id": "app.avemenu.AvemenuAdmin"
              }
            }
          ]
        }
      }
    }
  ],
  "configuration_version": "1"
}