<?xml version="1.0" encoding="UTF-8"?>
<svg width="16px" height="16px" viewBox="0 0 16 16" version="1.1" xmlns="http://www.w3.org/2000/svg" xmlns:xlink="http://www.w3.org/1999/xlink">
    <title>16x16/half star</title>
    <g id="16x16/half-star" stroke="none" stroke-width="1" fill="none" fill-rule="evenodd">
        <path d="M12.0787422,15 C12.3394837,15 12.5629764,14.8997396 12.7492204,14.6992188 C12.9354643,14.4986979 13.0006497,14.2617188 12.9447765,13.9882812 L12.9447765,13.9882812 L12.2463617,9.99609375 L15.2076403,7.1796875 C15.4870062,6.92447917 15.5661599,6.62369792 15.4451014,6.27734375 C15.3240428,5.93098958 15.0865818,5.73958333 14.7327183,5.703125 L14.7327183,5.703125 L10.6260395,5.1015625 L8.81016112,1.4921875 C8.64254158,1.1640625 8.37248787,1 8,1 C7.62751213,1 7.35745842,1.1640625 7.18983888,1.4921875 L7.18983888,1.4921875 L5.3739605,5.1015625 L1.2672817,5.67578125 C0.913418226,5.73046875 0.675957207,5.93098958 0.554898649,6.27734375 C0.43384009,6.62369792 0.512993763,6.92447917 0.792359667,7.1796875 L0.792359667,7.1796875 L3.75363825,9.99609375 L3.05522349,13.9882812 C2.99935031,14.2617188 3.06453569,14.4986979 3.25077963,14.6992188 C3.43702356,14.8997396 3.66051629,15 3.9212578,15 C4.07025295,15 4.2099359,14.9635417 4.34030665,14.890625 L4.34030665,14.890625 L8,13.03125 L11.6596933,14.890625 C11.7900641,14.9635417 11.9297471,15 12.0787422,15 Z M11.4641372,13.3320312 L8.61460499,11.8554688 L8,11.5273438 L8,2.859375 L9.42476611,5.67578125 L9.73206861,6.3046875 L10.4304834,6.4140625 L13.6152547,6.8515625 L11.3244543,9.06640625 L10.8215956,9.53125 L10.933342,10.2148438 L11.4641372,13.3320312 Z" id="star" fill="#FFFFFF"></path>
    </g>
</svg>