<?xml version="1.0" encoding="UTF-8"?>
<svg width="16px" height="16px" viewBox="0 0 16 16" version="1.1" xmlns="http://www.w3.org/2000/svg" xmlns:xlink="http://www.w3.org/1999/xlink">
    <!-- Generator: Sketch 55.2 (78181) - https://sketchapp.com -->
    <title>16x16/snacks</title>
    <desc>Created with Sketch.</desc>
    <g id="16x16/snacks" stroke="none" stroke-width="1" fill="none" fill-rule="evenodd">
        <path d="M10.2318841,14 L4.79951691,14 C4.67391304,14 4.61111111,13.975 4.61111111,13.925 L4.61111111,13.925 L4.61111111,13.5875 L4.14009662,13.5125 C3.30273752,13.3958333 2.60668277,13.2020833 2.05193237,12.93125 C1.49718196,12.6604167 1.14653784,12.35 1,12 L1,12 L14,12 C13.8534622,12.3416667 13.502818,12.65 12.9480676,12.925 C12.3933172,13.2 11.7077295,13.3958333 10.8913043,13.5125 L10.8913043,13.5125 L10.3888889,13.5875 L10.3888889,13.925 C10.3888889,13.975 10.3365539,14 10.2318841,14 L10.2318841,14 Z" id="salad" stroke="#FFFFFF" fill-opacity="0" fill="#FF8563" fill-rule="nonzero"></path>
        <rect id="Rectangle" stroke="#FFFFFF" x="2.5" y="10.5" width="2" height="1"></rect>
        <path d="M3.5,10.5 C4.41572632,10.5 5.2757188,9.95819327 5.2757188,9.5 C5.2757188,9.04180673 4.41572632,8.5 3.5,8.5 C2.53948099,8.5 1.5,9.07947606 1.5,9.5 C1.5,9.92052394 2.53948099,10.5 3.5,10.5 Z" id="Oval" stroke="#FFFFFF"></path>
        <path d="M2.5,7.98500226 L4.5,7.98500226 L4.5,7 C4.5,6.72385763 4.27614237,6.5 4,6.5 L3,6.5 C2.72385763,6.5 2.5,6.72385763 2.5,7 L2.5,7.98500226 Z" id="Rectangle" stroke="#FFFFFF"></path>
        <path d="M3.5,6.5 L3.5,4.5" id="Line-4" stroke="#FFFFFF" stroke-linecap="square"></path>
        <path d="M6.79477359,11.5 L9.5,11.5 L9.5,10.8526132 C9.5,10.1055856 8.89441444,9.5 8.14738679,9.5 C7.40035915,9.5 6.79477359,10.1055856 6.79477359,10.8526132 L6.79477359,11.5 Z" id="Rectangle" stroke="#FFFFFF"></path>
        <circle id="Oval" stroke="#FFFFFF" fill="#D8D8D8" cx="8" cy="8" r="1"></circle>
        <path d="M8,7.24250113 L8,5.5" id="Line" stroke="#FFFFFF" stroke-linecap="square"></path>
        <path d="M11.5,11.5 L13.5,11.5 L13.5,10 C13.5,9.72385763 13.2761424,9.5 13,9.5 L12,9.5 C11.7238576,9.5 11.5,9.72385763 11.5,10 L11.5,11.5 Z" id="Rectangle" stroke="#FFFFFF"></path>
        <path d="M12.5,8.5 L12.5,9.5" id="Line-2" stroke="#FFFFFF" stroke-linecap="square"></path>
        <path d="M12,6.5 C11.7238576,6.5 11.5,6.72385763 11.5,7 L11.5,7.48500226 C11.5,7.76114463 11.7238576,7.98500226 12,7.98500226 L13,7.98500226 C13.2761424,7.98500226 13.5,7.76114463 13.5,7.48500226 L13.5,7 C13.5,6.72385763 13.2761424,6.5 13,6.5 L12,6.5 Z" id="Rectangle" stroke="#FFFFFF"></path>
        <path d="M12.5,6.5 L12.5,4.5" id="Line-4" stroke="#FFFFFF" stroke-linecap="square"></path>
    </g>
</svg>