<?xml version="1.0" encoding="UTF-8"?>
<svg width="18px" height="18px" viewBox="0 0 18 18" version="1.1" xmlns="http://www.w3.org/2000/svg" xmlns:xlink="http://www.w3.org/1999/xlink">
    <!-- Generator: Sketch 55.2 (78181) - https://sketchapp.com -->
    <title>clock</title>
    <desc>Created with Sketch.</desc>
    <g id="Symbols" stroke="none" stroke-width="1" fill="none" fill-rule="evenodd">
        <g id="20x20/clock" transform="translate(-1.000000, -1.000000)" fill="#FF8563" fill-rule="nonzero">
            <g id="clock" transform="translate(1.000000, 1.000000)">
                <path d="M9,0.0244390244 C13.9496707,0.0244390244 17.9756341,4.05091463 17.9756341,8.99992683 C17.9756341,13.948939 13.9496707,17.975561 9,17.975561 C4.05047561,17.975561 0.0243658537,13.948939 0.0243658537,8.99992683 C0.0243658537,4.05091463 4.05047561,0.0244390244 9,0.0244390244 Z M9,16.1695244 C12.9537439,16.1695244 16.169561,12.9530122 16.169561,8.99992683 C16.169561,5.04684146 12.9537439,1.83032927 9,1.83032927 C5.04643902,1.83032927 1.83043902,5.04684146 1.83043902,8.99992683 C1.83043902,12.9530122 5.04643902,16.1695244 9,16.1695244 Z M12.301061,9.64960976 C12.7468537,9.87354878 12.9260854,10.4169146 12.7021098,10.8620122 C12.5432927,11.177561 12.2245976,11.3592805 11.8942683,11.3592805 C11.7579146,11.3592805 11.6191098,11.3286951 11.489122,11.262878 L9.61137805,10.3180244 C9.42508537,10.4044756 9.21932927,10.4562073 8.99996341,10.4562073 C8.19391463,10.4562073 7.54602439,9.8030122 7.54602439,8.99992683 C7.54602439,8.53847561 7.76356098,8.13168293 8.09864634,7.86471951 L8.09864634,4.03631707 C8.09864634,3.53769512 8.50265854,3.13317073 9.0017561,3.13317073 C9.50037805,3.13317073 9.90471951,3.53769512 9.90471951,4.03631707 L9.90471951,7.86589024 C10.1664878,8.07523171 10.3586707,8.36678049 10.4280732,8.70662195 L12.301061,9.64960976 Z M8.99118293,13.9037927 C9.4215,13.9037927 9.77081707,14.2524146 9.77085366,14.6833171 C9.77085366,15.1143659 9.42153659,15.4628415 8.99118293,15.4628415 C8.55965854,15.4628415 8.211,15.1143293 8.211,14.6833171 C8.211,14.2524146 8.55965854,13.9037927 8.99118293,13.9037927 Z M3.31203659,8.22512195 C3.74290244,8.22512195 4.09156098,8.57385366 4.09156098,9.00464634 C4.09156098,9.43569512 3.74286585,9.7842439 3.31203659,9.7842439 C2.8809878,9.7842439 2.53232927,9.43565854 2.53232927,9.00464634 C2.53232927,8.57381707 2.88102439,8.22512195 3.31203659,8.22512195 Z M14.6686098,8.22629268 C15.0996585,8.22629268 15.4481707,8.5749878 15.4481707,9.00581707 C15.4481707,9.43686585 15.099622,9.78556098 14.6686098,9.78556098 C14.2377439,9.78556098 13.8890854,9.43682927 13.8890854,9.00581707 C13.8890854,8.5749878 14.2377805,8.22629268 14.6686098,8.22629268 Z"></path>
            </g>
        </g>
    </g>
</svg>