<?xml version="1.0" encoding="UTF-8"?>
<svg width="16px" height="16px" viewBox="0 0 16 16" version="1.1" xmlns="http://www.w3.org/2000/svg" xmlns:xlink="http://www.w3.org/1999/xlink">
    <title>16x16/drink</title>
    <g id="16x16/drink" stroke="none" stroke-width="1" fill="none" fill-rule="evenodd">
        <path d="M12.0008168,8.875 C13.111701,8.875 14.0559526,8.4921875 14.8335716,7.7265625 C15.6111905,6.9609375 16,6.03125 16,4.9375 C16,3.84375 15.6111905,2.9140625 14.8335716,2.1484375 C14.0559526,1.3828125 13.111701,1 12.0008168,1 C11.1491389,1 10.3807773,1.24153646 9.69573208,1.72460938 C9.01068682,2.20768229 8.52930366,2.84114583 8.2515826,3.625 L8.2515826,3.625 L9.69573208,3.625 C9.93642366,3.22395833 10.2604316,2.90494792 10.6677558,2.66796875 C11.07508,2.43098958 11.5194337,2.3125 12.0008168,2.3125 C12.7414063,2.3125 13.3709074,2.56770833 13.88932,3.078125 C14.4077326,3.58854167 14.6669389,4.20833333 14.6669389,4.9375 C14.6669389,5.66666667 14.4077326,6.28645833 13.88932,6.796875 C13.3709074,7.30729167 12.7414063,7.5625 12.0008168,7.5625 C11.6305221,7.5625 11.2694847,7.48046875 10.9177047,7.31640625 L10.9177047,7.31640625 L9.91790892,8.30078125 C10.5659247,8.68359375 11.2602274,8.875 12.0008168,8.875 Z M9.11251787,15 C9.26063576,15 9.33469471,14.9270833 9.33469471,14.78125 C9.33469471,14.4713542 9.22823497,14.2115885 9.0153155,14.0019531 C8.80239602,13.7923177 8.53856102,13.6875 8.2238105,13.6875 L8.2238105,13.6875 L6.44639575,13.6875 L6.44639575,10.4882812 L11.3620584,5.6484375 C11.5657205,5.4296875 11.6120074,5.18359375 11.5009189,4.91015625 C11.3898305,4.63671875 11.176911,4.5 10.8621605,4.5 L10.8621605,4.5 L0.697569941,4.5 C0.382819413,4.5 0.169899939,4.63671875 0.0588115173,4.91015625 C-0.0522769042,5.18359375 -0.00599006194,5.4296875 0.197672044,5.6484375 L0.197672044,5.6484375 L5.11333469,10.4882812 L5.11333469,13.6875 L3.33591995,13.6875 C3.02116942,13.6875 2.75733442,13.7923177 2.54441495,14.0019531 C2.33149547,14.2115885 2.22503574,14.4713542 2.22503574,14.78125 C2.22503574,14.9270833 2.29909468,15 2.44721258,15 L2.44721258,15 L9.11251787,15 Z M5.77986522,9.28515625 L2.25280784,5.8125 L9.30692261,5.8125 L5.77986522,9.28515625 Z" id="drink" fill="#FF8563" fill-rule="nonzero"></path>
    </g>
</svg>