<?xml version="1.0" encoding="UTF-8"?>
<svg width="16px" height="16px" viewBox="0 0 16 16" version="1.1" xmlns="http://www.w3.org/2000/svg" xmlns:xlink="http://www.w3.org/1999/xlink">
    <title>16x16/main course</title>
    <g id="16x16/main-course" stroke="none" stroke-width="1" fill="none" fill-rule="evenodd">
        <path d="M12.375,15 C12.6119792,15 12.8170573,14.9134115 12.9902344,14.7402344 C13.1634115,14.5670573 13.25,14.3619792 13.25,14.125 L13.25,14.125 L13.25,10.625 L13.6875,9.3671875 C13.9791667,8.51041667 14.2708333,7.57161458 14.5625,6.55078125 C14.8541667,5.52994792 15,4.84635417 15,4.5 C15,3.77083333 14.7447917,3.15104167 14.234375,2.640625 C13.7239583,2.13020833 13.1041667,1.875 12.375,1.875 C11.7916667,1.875 11.2630208,2.05729167 10.7890625,2.421875 C10.0963542,1.47395833 9.16666667,1 8,1 C6.83333333,1 5.90364583,1.47395833 5.2109375,2.421875 C4.73697917,2.05729167 4.20833333,1.875 3.625,1.875 C2.89583333,1.875 2.27604167,2.13020833 1.765625,2.640625 C1.25520833,3.15104167 1,3.77083333 1,4.5 C1,5.265625 1.58333333,7.30729167 2.75,10.625 L2.75,10.625 L2.75,14.125 C2.75,14.3619792 2.83658854,14.5670573 3.00976562,14.7402344 C3.18294271,14.9134115 3.38802083,15 3.625,15 L3.625,15 L12.375,15 Z M4.80078125,10.1875 L3.98046875,10.1875 C2.88671875,7.05208333 2.33072917,5.15625 2.3125,4.5 C2.3125,4.13541667 2.44010417,3.82552083 2.6953125,3.5703125 C2.95052083,3.31510417 3.26041667,3.1875 3.625,3.1875 C3.91666667,3.1875 4.18098958,3.27864583 4.41796875,3.4609375 L4.41796875,3.4609375 L5.45703125,4.25390625 L6.25,3.1875 C6.6875,2.60416667 7.27083333,2.3125 8,2.3125 C8.72916667,2.3125 9.3125,2.60416667 9.75,3.1875 L9.75,3.1875 L10.5429688,4.25390625 L11.5820312,3.4609375 C11.8190104,3.27864583 12.0833333,3.1875 12.375,3.1875 C12.7395833,3.1875 13.0494792,3.31510417 13.3046875,3.5703125 C13.5598958,3.82552083 13.6875,4.13541667 13.6875,4.5 C13.6692708,5.15625 13.1132812,7.05208333 12.0195312,10.1875 L12.0195312,10.1875 L11.1992188,10.1875 L11.5,6.49609375 C11.5,6.35026042 11.4361979,6.27734375 11.3085938,6.27734375 L11.3085938,6.27734375 L10.8710938,6.22265625 L10.84375,6.22265625 C10.7161458,6.22265625 10.6432292,6.29557292 10.625,6.44140625 L10.625,6.44140625 L10.3242188,10.1875 L8.41015625,10.1875 L8.41015625,6.46875 C8.41015625,6.32291667 8.33723958,6.25 8.19140625,6.25 L8.19140625,6.25 L7.75390625,6.25 C7.60807292,6.25 7.53515625,6.32291667 7.53515625,6.46875 L7.53515625,6.46875 L7.53515625,10.1875 L5.67578125,10.1875 L5.375,6.44140625 C5.35677083,6.29557292 5.28385417,6.22265625 5.15625,6.22265625 L5.15625,6.22265625 L5.12890625,6.22265625 L4.69140625,6.27734375 C4.56380208,6.27734375 4.5,6.35026042 4.5,6.49609375 L4.5,6.49609375 L4.80078125,10.1875 Z M11.9375,13.6875 L4.0625,13.6875 L4.0625,11.5 L11.9375,11.5 L11.9375,13.6875 Z" id="main" fill="#FF8563" fill-rule="nonzero"></path>
    </g>
</svg>