<?xml version="1.0" encoding="UTF-8"?>
<svg width="16px" height="16px" viewBox="0 0 16 16" version="1.1" xmlns="http://www.w3.org/2000/svg" xmlns:xlink="http://www.w3.org/1999/xlink">
    <title>16x16/meat</title>
    <g id="16x16/meat" stroke="none" stroke-width="1" fill="none" fill-rule="evenodd">
        <path d="M7.2,14 C7.93333333,14 8.575,13.9882812 9.125,13.9648438 C9.675,13.9414062 10.2416667,13.8945312 10.825,13.8242188 C11.4083333,13.7539062 11.9,13.6484375 12.3,13.5078125 C12.7,13.3671875 13.0666667,13.1914062 13.4,12.9804688 C13.7333333,12.7695312 13.9833333,12.4960938 14.15,12.1601562 C14.3166667,11.8242188 14.4,11.4375 14.4,11 C14.4,10.40625 14.2458333,9.7578125 13.9375,9.0546875 C13.6291667,8.3515625 13.2083333,7.6875 12.675,7.0625 C12.6916667,7.046875 12.7125,7.0234375 12.7375,6.9921875 C12.7625,6.9609375 12.7833333,6.9453125 12.8,6.9453125 C12.9833333,6.8046875 13.1666667,6.78125 13.35,6.875 C13.5666667,6.96875 13.7916667,7.03125 14.025,7.0625 C14.4416667,7.09375 14.8625,6.98046875 15.2875,6.72265625 C15.7125,6.46484375 15.95,6.0625 16,5.515625 L16,5.515625 L16,5.3515625 C16,4.9609375 15.8541667,4.60546875 15.5625,4.28515625 C15.2708333,3.96484375 14.925,3.765625 14.525,3.6875 C14.525,3.296875 14.3625,2.91796875 14.0375,2.55078125 C13.7125,2.18359375 13.2666667,2 12.7,2 C12.2333333,2 11.825,2.15234375 11.475,2.45703125 C11.125,2.76171875 10.9333333,3.125 10.9,3.546875 C10.8833333,3.609375 10.875,3.6640625 10.875,3.7109375 C10.875,3.8671875 10.9,4.015625 10.95,4.15625 C10.9666667,4.203125 10.975,4.24609375 10.975,4.28515625 C10.975,4.32421875 10.9708333,4.359375 10.9625,4.390625 C10.9541667,4.421875 10.9458333,4.4453125 10.9375,4.4609375 C10.9291667,4.4765625 10.9125,4.5 10.8875,4.53125 C10.8625,4.5625 10.8416667,4.58203125 10.825,4.58984375 C10.8083333,4.59765625 10.7791667,4.6171875 10.7375,4.6484375 C10.6958333,4.6796875 10.6666667,4.703125 10.65,4.71875 C10.5,4.828125 10.3416667,4.9296875 10.175,5.0234375 C9.19166667,4.5078125 8.2,4.25 7.2,4.25 C5.95,4.25 4.75416667,4.62890625 3.6125,5.38671875 C2.47083333,6.14453125 1.58333333,7.0390625 0.95,8.0703125 C0.316666667,9.1015625 0,10.078125 0,11 C0,11.4375 0.0833333333,11.8242188 0.25,12.1601562 C0.416666667,12.4960938 0.666666667,12.7695312 1,12.9804688 C1.33333333,13.1914062 1.7,13.3671875 2.1,13.5078125 C2.5,13.6484375 2.99166667,13.7539062 3.575,13.8242188 C4.15833333,13.8945312 4.725,13.9414062 5.275,13.9648438 C5.825,13.9882812 6.46666667,14 7.2,14 Z M8.5,10.578125 C7.63333333,10.734375 6.94166667,10.5 6.425,9.875 C6.14166667,9.515625 6,9.1171875 6,8.6796875 C6,8.5078125 6.025,8.34375 6.075,8.1875 C6.10833333,8.0625 6.15833333,7.94140625 6.225,7.82421875 C6.29166667,7.70703125 6.4,7.5625 6.55,7.390625 C6.7,7.21875 6.925,7.07421875 7.225,6.95703125 C7.525,6.83984375 7.86666667,6.7734375 8.25,6.7578125 C9.46666667,6.6953125 10.5833333,6.2578125 11.6,5.4453125 C11.8666667,5.2265625 12.0375,4.9921875 12.1125,4.7421875 C12.1875,4.4921875 12.1833333,4.1953125 12.1,3.8515625 C12.0666667,3.6484375 12.1,3.484375 12.2,3.359375 C12.3,3.234375 12.3916667,3.1640625 12.475,3.1484375 C12.5583333,3.1328125 12.6333333,3.125 12.7,3.125 C12.8666667,3.125 13.0166667,3.17578125 13.15,3.27734375 C13.2833333,3.37890625 13.3416667,3.5390625 13.325,3.7578125 C13.325,3.7890625 13.2833333,3.890625 13.2,4.0625 C13.1666667,4.203125 13.1708333,4.3359375 13.2125,4.4609375 C13.2541667,4.5859375 13.3375,4.68359375 13.4625,4.75390625 C13.5875,4.82421875 13.725,4.84375 13.875,4.8125 C14.2416667,4.765625 14.4916667,4.8125 14.625,4.953125 C14.7416667,5.078125 14.8,5.2109375 14.8,5.3515625 L14.8,5.3515625 L14.8,5.3984375 C14.8,5.4453125 14.7833333,5.5 14.75,5.5625 C14.7166667,5.625 14.6666667,5.6953125 14.6,5.7734375 C14.5333333,5.8515625 14.4375,5.8984375 14.3125,5.9140625 C14.1875,5.9296875 14.0333333,5.90625 13.85,5.84375 C13.5333333,5.734375 13.275,5.6796875 13.075,5.6796875 C12.725,5.6796875 12.3833333,5.8125 12.05,6.078125 C11.05,6.859375 10.4,7.8515625 10.1,9.0546875 C10,9.4453125 9.80416667,9.78125 9.5125,10.0625 C9.22083333,10.34375 8.88333333,10.515625 8.5,10.578125 Z M7.2,12.875 C5.58333333,12.875 4.325,12.796875 3.425,12.640625 C2.525,12.484375 1.92916667,12.28125 1.6375,12.03125 C1.34583333,11.78125 1.2,11.4375 1.2,11 C1.2,10.265625 1.46666667,9.46484375 2,8.59765625 C2.53333333,7.73046875 3.27916667,6.9765625 4.2375,6.3359375 C5.19583333,5.6953125 6.18333333,5.375 7.2,5.375 C7.66666667,5.375 8.11666667,5.4453125 8.55,5.5859375 C8.33333333,5.6171875 8.20833333,5.6328125 8.175,5.6328125 C7.975,5.6328125 7.7625,5.65625 7.5375,5.703125 C7.3125,5.75 7.00833333,5.84375 6.625,5.984375 C6.24166667,6.125 5.89166667,6.359375 5.575,6.6875 C5.25833333,7.015625 5.03333333,7.421875 4.9,7.90625 C4.63333333,8.875 4.825,9.7578125 5.475,10.5546875 C5.75833333,10.8828125 6.07083333,11.1445312 6.4125,11.3398437 C6.75416667,11.5351562 7.09166667,11.6523438 7.425,11.6914062 C7.75833333,11.7304687 8.02083333,11.7460938 8.2125,11.7382812 C8.40416667,11.7304687 8.575,11.71875 8.725,11.703125 C9.34166667,11.578125 9.88333333,11.3007812 10.35,10.8710938 C10.8166667,10.4414062 11.125,9.921875 11.275,9.3125 C11.3916667,8.8125 11.6,8.3515625 11.9,7.9296875 C12.7666667,9.0078125 13.2,10.03125 13.2,11 C13.2,11.4375 13.0541667,11.78125 12.7625,12.03125 C12.4708333,12.28125 11.875,12.484375 10.975,12.640625 C10.075,12.796875 8.81666667,12.875 7.2,12.875 Z" id="meat" fill="#FF8563" fill-rule="nonzero"></path>
    </g>
</svg>