<?xml version="1.0" encoding="UTF-8"?>
<svg width="16px" height="16px" viewBox="0 0 16 16" version="1.1" xmlns="http://www.w3.org/2000/svg" xmlns:xlink="http://www.w3.org/1999/xlink">
    <title>16x16/pizza</title>
    <g id="16x16/pizza" stroke="none" stroke-width="1" fill="none" fill-rule="evenodd">
        <path d="M1.4375,15 C1.47395833,15 1.51953125,14.9908854 1.57421875,14.9726562 L1.57421875,14.9726562 L14.34375,11.4453125 C14.5625,11.3723958 14.7311198,11.2447917 14.8496094,11.0625 C14.968099,10.8802083 15.0182292,10.6796875 15,10.4609375 C14.7083333,7.98177083 13.6464844,5.84440104 11.8144531,4.04882812 C9.98242187,2.25325521 7.82682292,1.23697917 5.34765625,1 L5.34765625,1 L5.23828125,1 C5.11067708,1 4.98763021,1.02734375 4.86914062,1.08203125 C4.75065104,1.13671875 4.64583333,1.21875 4.5546875,1.328125 C4.46354167,1.4375 4.40885417,1.546875 4.390625,1.65625 L4.390625,1.65625 L1.02734375,14.453125 C1.00911458,14.4895833 1,14.5260417 1,14.5625 C1,14.671875 1.04101562,14.7721354 1.12304687,14.8632812 C1.20507812,14.9544271 1.30989583,15 1.4375,15 Z M12.4023437,10.625 C12.0377604,8.74739583 11.2220052,7.18424479 9.95507812,5.93554688 C8.68815104,4.68684896 7.11588542,3.88932292 5.23828125,3.54296875 L5.23828125,3.54296875 L5.56640625,2.33984375 C6.89713542,2.52213542 8.14127604,2.98242188 9.29882812,3.72070312 C10.4563802,4.45898438 11.4179687,5.40234375 12.1835937,6.55078125 C12.9492187,7.69921875 13.4322917,8.93880208 13.6328125,10.2695312 L13.6328125,10.2695312 L12.4023437,10.625 Z M2.66796875,13.3046875 L4.91015625,4.828125 C6.00390625,5.01041667 6.98828125,5.375 7.86328125,5.921875 C8.73828125,6.46875 9.45377604,7.17057292 10.0097656,8.02734375 C10.5657552,8.88411458 10.9440104,9.859375 11.1445312,10.953125 L11.1445312,10.953125 L2.66796875,13.3046875 Z M6.25,8 C6.48697917,8 6.69205729,7.91341146 6.86523437,7.74023438 C7.03841146,7.56705729 7.125,7.36197917 7.125,7.125 C7.125,6.88802083 7.03841146,6.68294271 6.86523437,6.50976562 C6.69205729,6.33658854 6.48697917,6.25 6.25,6.25 C6.01302083,6.25 5.80338542,6.34114583 5.62109375,6.5234375 C5.45703125,6.6875 5.375,6.88802083 5.375,7.125 C5.375,7.36197917 5.46158854,7.56705729 5.63476562,7.74023438 C5.80794271,7.91341146 6.01302083,8 6.25,8 Z M8.875,10.625 C9.11197917,10.625 9.31705729,10.5384115 9.49023437,10.3652344 C9.66341146,10.1920573 9.75,9.98697917 9.75,9.75 C9.75,9.51302083 9.66341146,9.30794271 9.49023437,9.13476562 C9.31705729,8.96158854 9.11197917,8.875 8.875,8.875 C8.63802083,8.875 8.43294271,8.96158854 8.25976562,9.13476562 C8.08658854,9.30794271 8,9.51302083 8,9.75 C8,9.98697917 8.08203125,10.1966146 8.24609375,10.3789062 C8.42838542,10.5429688 8.63802083,10.625 8.875,10.625 Z M5.375,11.5 C5.61197917,11.5 5.81705729,11.4134115 5.99023437,11.2402344 C6.16341146,11.0670573 6.25,10.8619792 6.25,10.625 C6.25,10.3880208 6.16341146,10.1829427 5.99023437,10.0097656 C5.81705729,9.83658854 5.61197917,9.75 5.375,9.75 C5.13802083,9.75 4.92838542,9.84114583 4.74609375,10.0234375 C4.58203125,10.1875 4.5,10.3880208 4.5,10.625 C4.5,10.8619792 4.58658854,11.0670573 4.75976562,11.2402344 C4.93294271,11.4134115 5.13802083,11.5 5.375,11.5 Z" id="pizza" fill="#FF8563" fill-rule="nonzero"></path>
    </g>
</svg>