<?xml version="1.0" encoding="UTF-8"?>
<svg width="16px" height="16px" viewBox="0 0 16 16" version="1.1" xmlns="http://www.w3.org/2000/svg" xmlns:xlink="http://www.w3.org/1999/xlink">
    <title>16x16/wallet</title>
    <g id="16x16/wallet" stroke="none" stroke-width="1" fill="none" fill-rule="evenodd">
        <path d="M13.25,14.625 C13.7421875,14.625 14.156901,14.4598214 14.4941406,14.1294643 C14.8313802,13.7991071 15,13.3928571 15,12.9107143 L15,12.9107143 L15,6.48214286 C15,6 14.8313802,5.59375 14.4941406,5.26339286 C14.156901,4.93303571 13.7421875,4.76785714 13.25,4.76785714 L13.25,4.76785714 L13.25,4.33928571 C13.25,3.85714286 13.0813802,3.45089286 12.7441406,3.12053571 C12.406901,2.79017857 11.9921875,2.625 11.5,2.625 L11.5,2.625 L3.625,2.625 C2.89583333,2.625 2.27604167,2.875 1.765625,3.375 C1.25520833,3.875 1,4.48214286 1,5.19642857 L1,5.19642857 L1,12.0535714 C1,12.7678571 1.25520833,13.375 1.765625,13.875 C2.27604167,14.375 2.89583333,14.625 3.625,14.625 L3.625,14.625 L13.25,14.625 Z M13.25,13.3392857 L3.625,13.3392857 C3.26041667,13.3392857 2.95052083,13.2142857 2.6953125,12.9642857 C2.44010417,12.7142857 2.3125,12.4107143 2.3125,12.0535714 L2.3125,12.0535714 L2.3125,5.19642857 C2.3125,4.83928571 2.44010417,4.53571429 2.6953125,4.28571429 C2.95052083,4.03571429 3.26041667,3.91071429 3.625,3.91071429 L3.625,3.91071429 L11.5,3.91071429 C11.6276042,3.91071429 11.7324219,3.95089286 11.8144531,4.03125 C11.8964844,4.11160714 11.9375,4.21428571 11.9375,4.33928571 L11.9375,4.33928571 L11.9375,5.19642857 L4.0625,5.19642857 C3.93489583,5.19642857 3.83007812,5.23660714 3.74804688,5.31696429 C3.66601562,5.39732143 3.625,5.5 3.625,5.625 C3.625,5.75 3.66601562,5.85267857 3.74804688,5.93303571 C3.83007812,6.01339286 3.93489583,6.05357143 4.0625,6.05357143 L4.0625,6.05357143 L13.25,6.05357143 C13.3776042,6.05357143 13.4824219,6.09375 13.5644531,6.17410714 C13.6464844,6.25446429 13.6875,6.35714286 13.6875,6.48214286 L13.6875,6.48214286 L13.6875,12.9107143 C13.6875,13.0357143 13.6464844,13.1383929 13.5644531,13.21875 C13.4824219,13.2991071 13.3776042,13.3392857 13.25,13.3392857 L13.25,13.3392857 Z M11.5,10.3392857 C11.7369792,10.3392857 11.9420573,10.2544643 12.1152344,10.0848214 C12.2884115,9.91517857 12.375,9.71428571 12.375,9.48214286 C12.375,9.25 12.2884115,9.04910714 12.1152344,8.87946429 C11.9420573,8.70982143 11.7369792,8.625 11.5,8.625 C11.2630208,8.625 11.0533854,8.71428571 10.8710938,8.89285714 C10.7070312,9.05357143 10.625,9.25 10.625,9.48214286 C10.625,9.71428571 10.7115885,9.91517857 10.8847656,10.0848214 C11.0579427,10.2544643 11.2630208,10.3392857 11.5,10.3392857 Z" id="wallet" fill="#FF8563" fill-rule="nonzero"></path>
    </g>
</svg>