<?xml version="1.0" encoding="UTF-8"?>
<svg width="28px" height="28px" viewBox="0 0 28 28" version="1.1" xmlns="http://www.w3.org/2000/svg" xmlns:xlink="http://www.w3.org/1999/xlink">
    <title>28x28/profile filled</title>
    <g id="28x28/profile-filled" stroke="none" stroke-width="1" fill="none" fill-rule="evenodd">
        <path d="M14,14 C15.4985119,14 16.7708333,13.4700521 17.8169643,12.4101562 C18.891369,11.3216146 19.4285714,10.0182292 19.4285714,8.5 C19.4285714,6.98177083 18.8984375,5.68554688 17.8381696,4.61132812 C16.7779018,3.53710938 15.4985119,3 14,3 C12.5014881,3 11.2220982,3.53710938 10.1618304,4.61132812 C9.1015625,5.68554688 8.57142857,6.98177083 8.57142857,8.5 C8.57142857,10.0182292 9.1015625,11.3144531 10.1618304,12.3886719 C11.2220982,13.4628906 12.5014881,14 14,14 Z M21.4642857,25 C22.0297619,25 22.5104167,24.7994792 22.90625,24.3984375 C23.3020833,23.9973958 23.5,23.5104167 23.5,22.9375 L23.5,22.9375 L23.5,21.1328125 C23.5,19.5572917 22.9415923,18.203776 21.8247768,17.0722656 C20.7079613,15.9407552 19.3720238,15.375 17.8169643,15.375 L17.8169643,15.375 L17.0959821,15.375 C16.1063988,15.8333333 15.0744048,16.0625 14,16.0625 C12.9255952,16.0625 11.8936012,15.8333333 10.9040179,15.375 L10.9040179,15.375 L10.1830357,15.375 C8.62797619,15.375 7.29203869,15.9407552 6.17522321,17.0722656 C5.05840774,18.203776 4.5,19.5572917 4.5,21.1328125 L4.5,21.1328125 L4.5,22.9375 C4.5,23.5104167 4.69791667,23.9973958 5.09375,24.3984375 C5.48958333,24.7994792 5.9702381,25 6.53571429,25 L6.53571429,25 L21.4642857,25 Z" id="profile-filled" fill="#FF8563" fill-rule="nonzero"></path>
    </g>
</svg>